{
  "vk": {
    "url": "https://vk.com/quickrentru",
    "class": "vk",
    "icon": "fab fa-vk"
  },
  "facebook": {
    "url": "https://www.facebook.com/quickrentru",
    "class": "facebook",
    "icon": "fab fa-facebook-f"
  },
  "telegram": {
    "url": "https://t.me/quickrentru",
    "class": "telegram",
    "icon": "fab fa-telegram-plane"
  }
}