<svg width="18" height="16" viewBox="0 0 18 16" fill="none" xmlns="http://www.w3.org/2000/svg">
<path d="M16.9453 0H1.05469C0.473203 0 0 0.488771 0 1.08939V11.9106C0 12.5112 0.473203 13 1.05469 13H16.9453C17.5268 13 18 12.5112 18 11.9106V1.08939C18 0.488771 17.5268 0 16.9453 0Z" fill="#00B074"/>
<path d="M14.4857 15.1892H11.7086V14H6.29143V15.1892H3.51429C3.2304 15.1892 3 15.3708 3 15.5946C3 15.8184 3.2304 16 3.51429 16H14.4857C14.7696 16 15 15.8184 15 15.5946C15 15.3708 14.7696 15.1892 14.4857 15.1892Z" fill="#00B074"/>
</svg>
