<svg width="48" height="48" viewBox="0 0 48 48" fill="none" xmlns="http://www.w3.org/2000/svg">
<path d="M47.1998 1.59998C47.6418 1.59998 48 1.24182 48 0.800172C48 0.358156 47.6418 1.36318e-06 47.1998 1.36318e-06H26.5236C25.7311 -0.000731059 24.9664 0.293703 24.379 0.825441L1.31946 21.653C0.480103 22.4117 0.000732422 23.4902 0 24.6218V27.2C0 27.642 0.358154 28.0001 0.800171 28.0001C1.24182 28.0001 1.59998 27.642 1.59998 27.2V24.6218C1.60071 23.9429 1.88818 23.2961 2.39136 22.8406L5.6001 19.9424V38.4001H0.800171C0.358154 38.4001 0 38.7583 0 39.2C0 39.642 0.358154 40.0001 0.800171 40.0001H1.59998V46.4C1.60107 47.2833 2.31665 47.9989 3.19995 48H46.4C47.2833 47.9989 47.9989 47.2833 48 46.4V16.0001C47.9989 15.1168 47.2833 14.4009 46.4 14.4001H41.6001V1.59998H47.1998ZM26.5236 1.59998H31.9999V14.4001H27.2C26.7583 14.4001 26.4001 14.7583 26.4001 15.2C26.4001 15.642 26.7583 16.0001 27.2 16.0001H28.0001V21.5999C27.9998 22.0415 27.6416 22.3997 27.2 22.4H24.8002V2.60083L25.4517 2.01233C25.7454 1.74646 26.1273 1.59961 26.5236 1.59998ZM19.9999 22.4H18.3999C17.9583 22.4 17.6001 22.7582 17.6001 23.1998C17.6001 23.6418 17.9583 24 18.3999 24H19.2001V29.6001C19.1997 30.0417 18.8416 30.3995 18.3999 30.3999H16.0001V10.5491L23.1998 4.04627V22.4H19.9999ZM7.20007 18.4973L14.4001 11.9945V30.3999H9.59985C9.1582 30.3999 8.80005 30.7581 8.80005 31.2001C8.80005 31.6417 9.1582 31.9999 9.59985 31.9999H10.4V37.6C10.3997 38.0416 10.0415 38.3998 9.59985 38.4001H7.20007V18.4973ZM31.9999 46.4C31.1169 46.3989 30.401 45.6833 30.3999 44.8V40.0001H38.4001V44.8C38.399 45.6833 37.6831 46.3989 36.8002 46.4H31.9999ZM32.7795 34.9219C31.0785 34.3773 29.5583 33.3783 28.3839 32.0321C27.3138 30.6017 26.6536 28.9069 26.4745 27.1293C28.1763 27.6731 29.6964 28.6725 30.8708 30.0187C31.9406 31.4495 32.6005 33.1443 32.7795 34.9219ZM33.104 30.5321C33.0714 30.0868 33.0762 29.6393 33.1172 29.1947C33.3805 27.2197 34.1865 25.3564 35.4452 23.8121C36.3875 25.5667 36.8269 27.5471 36.7148 29.5356C36.6877 29.8213 36.6412 30.1047 36.5757 30.3842C36.0868 31.2902 35.7217 32.2573 35.491 33.2604C35.4866 33.2706 35.4873 33.2816 35.4833 33.2922C35.3372 33.9203 35.2361 34.5579 35.1819 35.1998H34.4183C34.2894 33.5731 33.843 31.9871 33.104 30.5321ZM38.7297 30.019C39.9064 28.6747 41.4269 27.6764 43.1283 27.1311C42.9496 28.9087 42.2886 30.6035 41.2163 32.0321C40.0393 33.3765 38.5188 34.3748 36.8177 34.9204C36.9965 33.1428 37.6575 31.448 38.7297 30.019ZM40.0001 36.8002L40.0009 38.4001H28.7999V36.8002H40.0001ZM46.4 46.4H39.5548C39.843 45.9159 39.9968 45.3633 40.0001 44.8V40.0001C40.8831 39.999 41.599 39.2831 41.6001 38.4001V36.8002C41.599 35.9169 40.8831 35.2009 40.0001 35.1998H39.969C40.9142 34.6238 41.7561 33.8932 42.4603 33.0392C43.9603 31.0111 44.7795 28.5604 44.8 26.038C44.796 25.8014 44.6876 25.5784 44.5038 25.4293C44.3196 25.2806 44.0793 25.2206 43.8468 25.266C41.7946 25.7322 39.8947 26.7129 38.3262 28.1158C38.1379 25.9332 37.4202 23.8293 36.2351 21.9869C36.1014 21.7917 35.8879 21.6658 35.6525 21.6431C35.417 21.6215 35.1841 21.7042 35.0149 21.8694C33.2695 23.6854 32.0852 25.9673 31.6047 28.4399C29.9854 26.8612 27.9595 25.7626 25.7531 25.2664C25.5209 25.2209 25.2803 25.2806 25.0964 25.4297C24.9126 25.5787 24.8042 25.8014 24.8002 26.038C24.8203 28.5604 25.6395 31.0111 27.1399 33.0392C27.8438 33.8932 28.6857 34.6238 29.6309 35.1998H28.7999C27.9166 35.2009 27.201 35.9169 27.2 36.8002V38.4001C27.201 39.2831 27.9166 39.999 28.7999 40.0001V44.8C28.8032 45.3633 28.957 45.9159 29.2449 46.4H3.19995V40.0001H9.59985C10.9248 39.9987 11.9985 38.9249 12 37.6V31.9999H18.3999C19.7249 31.9984 20.7986 30.925 20.8 29.6001V24H27.2C28.5249 23.9985 29.5986 22.9248 29.6001 21.5999V16.0001H32.8011L40.7963 15.9994L40.7999 16.0001L40.804 15.999H46.4V46.4ZM40.0001 14.4001H33.5999V1.59998H40.0001V14.4001Z" fill="#00B074"/>
<path d="M36.0001 44H32.8002C32.3582 44 32 44.3582 32 44.8002C32 45.2418 32.3582 45.6 32.8002 45.6H36.0001C36.4418 45.6 36.8003 45.2418 36.8003 44.8002C36.8003 44.3582 36.4418 44 36.0001 44Z" fill="#00B074"/>
</svg>
